----------------------------------------------------------------
-Pin Report - Date: Wed Jan 20 11:23:21 2021 Pinchecksum: NOT-AVAILABLE
-Product: Designer
-Release: v12.6
-Version: 12.900.20.24
-Design Name: top
-Family: PolarFire
-Die: MPF300TS
-Package: FCG1152
-----------------------------------------------------------------

Port |Pin  |Fixed |Function                              |Bank     |I/O Std   |Direction    |Used I/O Reg       |User I/O Lock Down |Clamp Diode   |Resistor Pull   |Schmitt Trigger |Vcm Input Range    |On Die Termination |Odt Value (Ohm) |Input Delay |Slew              |Output Drive (mA) |Impedance (ohm)  |Output Load (pF)         |Source Termination (Ohm) |Output Delay |
-----|-----|------|--------------------------------------|---------|----------|-------------|-------------------|-------------------|--------------|----------------|----------------|-------------------|-------------------|----------------|------------|------------------|------------------|-----------------|-------------------------|-------------------------|-------------|
clk   T9    Yes    GPIO219PB4/CLKIN_W_3/CCC_SW_CLKIN_W_3  Bank4     LVCMOS18   Input         None                No                  ON             Up               OFF              ---                 OFF                 120              OFF          ---                ---                ---               ---                       ---                       ---           
ne    AL27  Yes    HSIO72NB1                              Bank1     LVCMOS18   Output        None                No                  ON             None             ---              ---                 ---                 120              ---          OFF                8                  ---               5                         ---                       OFF           
rst   U10   Yes    GPIO216PB4/CLKIN_W_4/CCC_NW_CLKIN_W_4  Bank4     LVCMOS18   Input         None                No                  ON             Up               OFF              ---                 OFF                 120              OFF          ---                ---                ---               ---                       ---                       ---           
sw    G4    Yes    GPIO244PB2/CCC_SW_CLKIN_S_0            Bank2     LVCMOS18   Output        None                No                  ON             None             ---              ---                 ---                 120              ---          OFF                8                  ---               5                         ---                       OFF           
